Library version: 0.15 (git tag: 6ecff5d)
Compiled with backends: local xml ip
IIO context created with network backend.
Backend version: 0.14 (git tag: c9909f2)
Backend description string: 192.168.0.19 Linux analog-1 4.9.0-g0fa1a63 #18 SMP PREEMPT Fri Jan 26 08:34:30 GMT 2018 armv7l
IIO context has 2 attributes:
	local,kernel: 4.9.0-g0fa1a63
	ip,ip-addr: 192.168.0.19
IIO context has 5 devices:
	iio:device3: cf-ad9361-dds-core-lpc (buffer capable)
		6 channels found:
			voltage0:  (output, index: 0, format: le:S16/16>>0)
			3 channel-specific attributes found:
				attr  0: calibscale value: 1.000000
				attr  1: calibphase value: 0.000000
				attr  2: sampling_frequency value: 20000000
			voltage1:  (output, index: 1, format: le:S16/16>>0)
			3 channel-specific attributes found:
				attr  0: calibphase value: 0.000000
				attr  1: calibscale value: 1.000000
				attr  2: sampling_frequency value: 20000000
			altvoltage3: TX1_Q_F2 (output)
			5 channel-specific attributes found:
				attr  0: raw value: 1
				attr  1: phase value: 0
				attr  2: frequency value: 767528
				attr  3: scale value: 0.251160
				attr  4: sampling_frequency value: 20000000
			altvoltage1: TX1_I_F2 (output)
			5 channel-specific attributes found:
				attr  0: phase value: 90000
				attr  1: scale value: 0.251160
				attr  2: raw value: 1
				attr  3: frequency value: 767528
				attr  4: sampling_frequency value: 20000000
			altvoltage0: TX1_I_F1 (output)
			5 channel-specific attributes found:
				attr  0: phase value: 90000
				attr  1: scale value: 0.251160
				attr  2: frequency value: 767528
				attr  3: raw value: 1
				attr  4: sampling_frequency value: 20000000
			altvoltage2: TX1_Q_F1 (output)
			5 channel-specific attributes found:
				attr  0: raw value: 1
				attr  1: phase value: 0
				attr  2: frequency value: 767528
				attr  3: scale value: 0.251160
				attr  4: sampling_frequency value: 20000000
		2 buffer-specific attributes found:
				attr  0: watermark value: 2048
				attr  1: data_available value: 0
		1 debug attributes found:
				debug attr  0: direct_reg_access value: 0x90062
	iio:device1: ad9361-phy
		9 channels found:
			altvoltage1: TX_LO (output)
			8 channel-specific attributes found:
				attr  0: external value: 0
				attr  1: frequency value: 2000000000
				attr  2: fastlock_store value: 0
				attr  3: fastlock_recall ERROR: Invalid argument (-22)
				attr  4: powerdown value: 0
				attr  5: fastlock_save value: 0 222,252,254,254,252,254,252,254,255,254,254,254,252,254,254,254
				attr  6: frequency_available value: [46875001 1 6000000000]
				attr  7: fastlock_load value: 0
			voltage0:  (input)
			15 channel-specific attributes found:
				attr  0: hardwaregain_available value: [-3 1 71]
				attr  1: hardwaregain value: 64.000000 dB
				attr  2: rssi value: 108.75 dB
				attr  3: rf_port_select value: A_BALANCED
				attr  4: gain_control_mode value: manual
				attr  5: rf_port_select_available value: A_BALANCED B_BALANCED C_BALANCED A_N A_P B_N B_P C_N C_P TX_MONITOR1 TX_MONITOR2 TX_MONITOR1_2
				attr  6: rf_bandwidth value: 20000000
				attr  7: rf_dc_offset_tracking_en value: 1
				attr  8: sampling_frequency_available value: [2083333 1 61440000]
				attr  9: quadrature_tracking_en value: 1
				attr 10: sampling_frequency value: 20000000
				attr 11: gain_control_mode_available value: manual fast_attack slow_attack hybrid
				attr 12: filter_fir_en value: 0
				attr 13: rf_bandwidth_available value: [200000 1 56000000]
				attr 14: bb_dc_offset_tracking_en value: 1
			voltage3:  (output)
			8 channel-specific attributes found:
				attr  0: scale value: 1.000000
				attr  1: raw value: 306
				attr  2: sampling_frequency_available value: [2083333 1 61440000]
				attr  3: rf_port_select_available value: A B
				attr  4: filter_fir_en value: 0
				attr  5: sampling_frequency value: 20000000
				attr  6: rf_bandwidth_available value: [200000 1 40000000]
				attr  7: rf_bandwidth value: 20000000
			altvoltage0: RX_LO (output)
			8 channel-specific attributes found:
				attr  0: frequency_available value: [70000000 1 6000000000]
				attr  1: fastlock_save value: 0 250,250,250,250,250,249,250,250,250,250,250,250,250,250,250,254
				attr  2: powerdown value: 0
				attr  3: fastlock_load value: 0
				attr  4: fastlock_store value: 0
				attr  5: frequency value: 2000000000
				attr  6: external value: 0
				attr  7: fastlock_recall ERROR: Invalid argument (-22)
			voltage2:  (output)
			8 channel-specific attributes found:
				attr  0: raw value: 306
				attr  1: scale value: 1.000000
				attr  2: sampling_frequency_available value: [2083333 1 61440000]
				attr  3: rf_port_select_available value: A B
				attr  4: filter_fir_en value: 0
				attr  5: sampling_frequency value: 20000000
				attr  6: rf_bandwidth_available value: [200000 1 40000000]
				attr  7: rf_bandwidth value: 20000000
			temp0:  (input)
			1 channel-specific attributes found:
				attr  0: input value: 27193
			voltage0:  (output)
			10 channel-specific attributes found:
				attr  0: rf_port_select value: A
				attr  1: hardwaregain value: -10.750000 dB
				attr  2: rssi value: 0.00 dB
				attr  3: hardwaregain_available value: [0 250 89750]
				attr  4: sampling_frequency_available value: [2083333 1 61440000]
				attr  5: rf_port_select_available value: A B
				attr  6: filter_fir_en value: 0
				attr  7: sampling_frequency value: 20000000
				attr  8: rf_bandwidth_available value: [200000 1 40000000]
				attr  9: rf_bandwidth value: 20000000
			voltage2:  (input)
			13 channel-specific attributes found:
				attr  0: offset value: 57
				attr  1: scale value: 0.305250
				attr  2: raw value: 1858
				attr  3: rf_port_select_available value: A_BALANCED B_BALANCED C_BALANCED A_N A_P B_N B_P C_N C_P TX_MONITOR1 TX_MONITOR2 TX_MONITOR1_2
				attr  4: rf_bandwidth value: 20000000
				attr  5: rf_dc_offset_tracking_en value: 1
				attr  6: sampling_frequency_available value: [2083333 1 61440000]
				attr  7: quadrature_tracking_en value: 1
				attr  8: sampling_frequency value: 20000000
				attr  9: gain_control_mode_available value: manual fast_attack slow_attack hybrid
				attr 10: filter_fir_en value: 0
				attr 11: rf_bandwidth_available value: [200000 1 56000000]
				attr 12: bb_dc_offset_tracking_en value: 1
			out:  (input)
			1 channel-specific attributes found:
				attr  0: voltage_filter_fir_en value: 0
		18 device-specific attributes found:
				attr  0: dcxo_tune_coarse value: 8
				attr  1: rx_path_rates value: BBPLL:1280000000 ADC:160000000 R2:80000000 R1:40000000 RF:20000000 RXSAMP:20000000
				attr  2: trx_rate_governor value: nominal
				attr  3: calib_mode_available value: auto manual manual_tx_quad tx_quad rf_dc_offs rssi_gain_step
				attr  4: xo_correction_available value: [40000000 1 40000000]
				attr  5: gain_table_config ERROR: Input/output error (-5)
				attr  6: dcxo_tune_fine value: 5919
				attr  7: dcxo_tune_fine_available value: [0 1 8191]
				attr  8: ensm_mode_available value: sleep wait alert fdd pinctrl pinctrl_fdd_indep
				attr  9: multichip_sync ERROR: Input/output error (-5)
				attr 10: rssi_gain_step_error value: lna_error: 0 0 0 0
mixer_error: 0 0 0 0 0 0 0 0 0 0 0 0 0 0 0 0
gain_step_calib_reg_val: 0 0 0 0 0
				attr 11: dcxo_tune_coarse_available value: [0 1 63]
				attr 12: tx_path_rates value: BBPLL:1280000000 DAC:160000000 T2:80000000 T1:40000000 TF:20000000 TXSAMP:20000000
				attr 13: trx_rate_governor_available value: nominal highest_osr
				attr 14: xo_correction value: 40000000
				attr 15: ensm_mode value: fdd
				attr 16: filter_fir_config value: FIR Rx: 0,0 Tx: 0,0
				attr 17: calib_mode value: auto
		177 debug attributes found:
				debug attr  0: digital_tune value: 0
				debug attr  1: calibration_switch_control value: 0
				debug attr  2: multichip_sync value: 0
				debug attr  3: gaininfo_rx2 ERROR: Resource temporarily unavailable (-11)
				debug attr  4: gaininfo_rx1 value: 64 69 0 0 0 0 0 0
				debug attr  5: bist_timing_analysis value: 0
				debug attr  6: bist_tone value: 0
				debug attr  7: bist_prbs value: 0
				debug attr  8: loopback value: 0
				debug attr  9: initialize value: 0
				debug attr 10: adi,txmon-2-lo-cm value: 48
				debug attr 11: adi,txmon-1-lo-cm value: 48
				debug attr 12: adi,txmon-2-front-end-gain value: 2
				debug attr 13: adi,txmon-1-front-end-gain value: 2
				debug attr 14: adi,txmon-duration value: 8192
				debug attr 15: adi,txmon-delay value: 511
				debug attr 16: adi,txmon-one-shot-mode-enable value: 0
				debug attr 17: adi,txmon-dc-tracking-enable value: 0
				debug attr 18: adi,txmon-high-gain value: 24
				debug attr 19: adi,txmon-low-gain value: 0
				debug attr 20: adi,txmon-low-high-thresh value: 37000
				debug attr 21: adi,gpo3-tx-delay-us value: 0
				debug attr 22: adi,gpo3-rx-delay-us value: 0
				debug attr 23: adi,gpo2-tx-delay-us value: 0
				debug attr 24: adi,gpo2-rx-delay-us value: 0
				debug attr 25: adi,gpo1-tx-delay-us value: 0
				debug attr 26: adi,gpo1-rx-delay-us value: 0
				debug attr 27: adi,gpo0-tx-delay-us value: 0
				debug attr 28: adi,gpo0-rx-delay-us value: 0
				debug attr 29: adi,gpo3-slave-tx-enable value: 0
				debug attr 30: adi,gpo3-slave-rx-enable value: 0
				debug attr 31: adi,gpo2-slave-tx-enable value: 0
				debug attr 32: adi,gpo2-slave-rx-enable value: 0
				debug attr 33: adi,gpo1-slave-tx-enable value: 0
				debug attr 34: adi,gpo1-slave-rx-enable value: 0
				debug attr 35: adi,gpo0-slave-tx-enable value: 0
				debug attr 36: adi,gpo0-slave-rx-enable value: 0
				debug attr 37: adi,gpo3-inactive-state-high-enable value: 0
				debug attr 38: adi,gpo2-inactive-state-high-enable value: 0
				debug attr 39: adi,gpo1-inactive-state-high-enable value: 0
				debug attr 40: adi,gpo0-inactive-state-high-enable value: 0
				debug attr 41: adi,gpo-manual-mode-enable-mask value: 0
				debug attr 42: adi,gpo-manual-mode-enable value: 0
				debug attr 43: adi,aux-dac2-tx-delay-us value: 0
				debug attr 44: adi,aux-dac2-rx-delay-us value: 0
				debug attr 45: adi,aux-dac2-active-in-alert-enable value: 0
				debug attr 46: adi,aux-dac2-active-in-tx-enable value: 0
				debug attr 47: adi,aux-dac2-active-in-rx-enable value: 0
				debug attr 48: adi,aux-dac2-default-value-mV value: 0
				debug attr 49: adi,aux-dac1-tx-delay-us value: 0
				debug attr 50: adi,aux-dac1-rx-delay-us value: 0
				debug attr 51: adi,aux-dac1-active-in-alert-enable value: 0
				debug attr 52: adi,aux-dac1-active-in-tx-enable value: 0
				debug attr 53: adi,aux-dac1-active-in-rx-enable value: 0
				debug attr 54: adi,aux-dac1-default-value-mV value: 0
				debug attr 55: adi,aux-dac-manual-mode-enable value: 1
				debug attr 56: adi,aux-adc-decimation value: 256
				debug attr 57: adi,aux-adc-rate value: 40000000
				debug attr 58: adi,temp-sense-decimation value: 256
				debug attr 59: adi,temp-sense-periodic-measurement-enable value: 1
				debug attr 60: adi,temp-sense-offset-signed value: 206
				debug attr 61: adi,temp-sense-measurement-interval-ms value: 1000
				debug attr 62: adi,elna-gaintable-all-index-enable value: 0
				debug attr 63: adi,elna-rx2-gpo1-control-enable value: 0
				debug attr 64: adi,elna-rx1-gpo0-control-enable value: 0
				debug attr 65: adi,elna-bypass-loss-mdB value: 0
				debug attr 66: adi,elna-gain-mdB value: 0
				debug attr 67: adi,elna-settling-delay-ns value: 0
				debug attr 68: adi,ctrl-outs-enable-mask value: 255
				debug attr 69: adi,ctrl-outs-index value: 0
				debug attr 70: adi,rssi-duration value: 1000
				debug attr 71: adi,rssi-wait value: 1
				debug attr 72: adi,rssi-delay value: 1
				debug attr 73: adi,rssi-unit-is-rx-samples-enable value: 0
				debug attr 74: adi,rssi-restart-mode value: 3
				debug attr 75: adi,fagc-power-measurement-duration-in-state5 value: 64
				debug attr 76: adi,fagc-rst-gla-if-en-agc-pulled-high-mode value: 0
				debug attr 77: adi,fagc-rst-gla-en-agc-pulled-high-enable value: 0
				debug attr 78: adi,fagc-rst-gla-large-lmt-overload-enable value: 1
				debug attr 79: adi,fagc-rst-gla-large-adc-overload-enable value: 1
				debug attr 80: adi,fagc-energy-lost-stronger-sig-gain-lock-exit-cnt value: 8
				debug attr 81: adi,fagc-rst-gla-engergy-lost-sig-thresh-below-ll value: 10
				debug attr 82: adi,fagc-rst-gla-engergy-lost-goto-optim-gain-enable value: 1
				debug attr 83: adi,fagc-rst-gla-engergy-lost-sig-thresh-exceeded-enable value: 1
				debug attr 84: adi,fagc-rst-gla-stronger-sig-thresh-above-ll value: 10
				debug attr 85: adi,fagc-optimized-gain-offset value: 5
				debug attr 86: adi,fagc-rst-gla-stronger-sig-thresh-exceeded-enable value: 1
				debug attr 87: adi,fagc-use-last-lock-level-for-set-gain-enable value: 1
				debug attr 88: adi,fagc-gain-index-type-after-exit-rx-mode value: 0
				debug attr 89: adi,fagc-gain-increase-after-gain-lock-enable value: 0
				debug attr 90: adi,fagc-final-overrange-count value: 3
				debug attr 91: adi,fagc-lmt-final-settling-steps value: 1
				debug attr 92: adi,fagc-lpf-final-settling-steps value: 1
				debug attr 93: adi,fagc-lock-level-gain-increase-upper-limit value: 5
				debug attr 94: adi,fagc-lock-level-lmt-gain-increase-enable value: 1
				debug attr 95: adi,fagc-lp-thresh-increment-steps value: 1
				debug attr 96: adi,fagc-lp-thresh-increment-time value: 5
				debug attr 97: adi,fagc-allow-agc-gain-increase-enable value: 0
				debug attr 98: adi,fagc-state-wait-time-ns value: 260
				debug attr 99: adi,fagc-dec-pow-measurement-duration value: 64
				debug attr 100: adi,agc-immed-gain-change-if-large-lmt-overload-enable value: 0
				debug attr 101: adi,agc-immed-gain-change-if-large-adc-overload-enable value: 0
				debug attr 102: adi,agc-gain-update-interval-us value: 1000
				debug attr 103: adi,agc-sync-for-gain-counter-enable value: 0
				debug attr 104: adi,agc-dig-gain-step-size value: 4
				debug attr 105: adi,agc-dig-saturation-exceed-counter value: 3
				debug attr 106: adi,agc-lmt-overload-large-inc-steps value: 2
				debug attr 107: adi,agc-lmt-overload-small-exceed-counter value: 10
				debug attr 108: adi,agc-lmt-overload-large-exceed-counter value: 10
				debug attr 109: adi,agc-adc-lmt-small-overload-prevent-gain-inc-enable value: 0
				debug attr 110: adi,agc-adc-large-overload-inc-steps value: 2
				debug attr 111: adi,agc-adc-large-overload-exceed-counter value: 10
				debug attr 112: adi,agc-adc-small-overload-exceed-counter value: 10
				debug attr 113: adi,agc-outer-thresh-low-inc-steps value: 2
				debug attr 114: adi,agc-outer-thresh-low value: 18
				debug attr 115: adi,agc-inner-thresh-low-inc-steps value: 1
				debug attr 116: adi,agc-inner-thresh-low value: 12
				debug attr 117: adi,agc-inner-thresh-high-dec-steps value: 1
				debug attr 118: adi,agc-inner-thresh-high value: 10
				debug attr 119: adi,agc-outer-thresh-high-dec-steps value: 2
				debug attr 120: adi,agc-outer-thresh-high value: 5
				debug attr 121: adi,agc-attack-delay-extra-margin-us value: 1
				debug attr 122: adi,mgc-split-table-ctrl-inp-gain-mode value: 0
				debug attr 123: adi,mgc-dec-gain-step value: 2
				debug attr 124: adi,mgc-inc-gain-step value: 2
				debug attr 125: adi,mgc-rx2-ctrl-inp-enable value: 0
				debug attr 126: adi,mgc-rx1-ctrl-inp-enable value: 0
				debug attr 127: adi,gc-use-rx-fir-out-for-dec-pwr-meas-enable value: 0
				debug attr 128: adi,gc-max-dig-gain value: 15
				debug attr 129: adi,gc-dig-gain-enable value: 0
				debug attr 130: adi,gc-low-power-thresh value: 24
				debug attr 131: adi,gc-dec-pow-measurement-duration value: 8192
				debug attr 132: adi,gc-lmt-overload-low-thresh value: 704
				debug attr 133: adi,gc-lmt-overload-high-thresh value: 800
				debug attr 134: adi,gc-adc-large-overload-thresh value: 58
				debug attr 135: adi,gc-adc-small-overload-thresh value: 47
				debug attr 136: adi,gc-adc-ovr-sample-size value: 4
				debug attr 137: adi,gc-rx2-mode value: 0
				debug attr 138: adi,gc-rx1-mode value: 2
				debug attr 139: adi,update-tx-gain-in-alert-enable value: 0
				debug attr 140: adi,tx-attenuation-mdB value: 10000
				debug attr 141: adi,rf-tx-bandwidth-hz value: 18000000
				debug attr 142: adi,rf-rx-bandwidth-hz value: 18000000
				debug attr 143: adi,qec-tracking-slow-mode-enable value: 0
				debug attr 144: adi,dc-offset-count-low-range value: 50
				debug attr 145: adi,dc-offset-count-high-range value: 40
				debug attr 146: adi,dc-offset-attenuation-low-range value: 5
				debug attr 147: adi,dc-offset-attenuation-high-range value: 6
				debug attr 148: adi,dc-offset-tracking-update-event-mask value: 5
				debug attr 149: adi,clk-output-mode-select value: 0
				debug attr 150: adi,external-rx-lo-enable value: 0
				debug attr 151: adi,external-tx-lo-enable value: 0
				debug attr 152: adi,xo-disable-use-ext-refclk-enable value: 0
				debug attr 153: adi,trx-synthesizer-target-fref-overwrite-hz value: 80008000
				debug attr 154: adi,rx1-rx2-phase-inversion-enable value: 0
				debug attr 155: adi,tx-rf-port-input-select-lock-enable value: 0
				debug attr 156: adi,rx-rf-port-input-select-lock-enable value: 0
				debug attr 157: adi,tx-rf-port-input-select value: 0
				debug attr 158: adi,rx-rf-port-input-select value: 0
				debug attr 159: adi,split-gain-table-mode-enable value: 0
				debug attr 160: adi,1rx-1tx-mode-use-tx-num value: 1
				debug attr 161: adi,1rx-1tx-mode-use-rx-num value: 1
				debug attr 162: adi,2rx-2tx-mode-enable value: 0
				debug attr 163: adi,digital-interface-tune-fir-disable value: 0
				debug attr 164: adi,digital-interface-tune-skip-mode value: 0
				debug attr 165: adi,tx-fastlock-pincontrol-enable value: 0
				debug attr 166: adi,rx-fastlock-pincontrol-enable value: 0
				debug attr 167: adi,rx-fastlock-delay-ns value: 0
				debug attr 168: adi,tx-fastlock-delay-ns value: 0
				debug attr 169: adi,tdd-skip-vco-cal-enable value: 0
				debug attr 170: adi,tdd-use-dual-synth-mode-enable value: 0
				debug attr 171: adi,debug-mode-enable value: 0
				debug attr 172: adi,ensm-enable-txnrx-control-enable value: 0
				debug attr 173: adi,ensm-enable-pin-pulse-mode-enable value: 0
				debug attr 174: adi,frequency-division-duplex-independent-mode-enable value: 0
				debug attr 175: adi,frequency-division-duplex-mode-enable value: 1
				debug attr 176: direct_reg_access value: 0x0
	iio:device4: cf-ad9361-lpc (buffer capable)
		2 channels found:
			voltage0:  (input, index: 0, format: le:S12/16>>0)
			5 channel-specific attributes found:
				attr  0: calibphase value: 0.000000
				attr  1: calibbias value: 0
				attr  2: calibscale value: 1.000000
				attr  3: samples_pps ERROR: No such device (-19)
				attr  4: sampling_frequency value: 20000000
			voltage1:  (input, index: 1, format: le:S12/16>>0)
			5 channel-specific attributes found:
				attr  0: calibbias value: 0
				attr  1: calibphase value: 0.000000
				attr  2: calibscale value: 1.000000
				attr  3: samples_pps ERROR: No such device (-19)
				attr  4: sampling_frequency value: 20000000
		2 buffer-specific attributes found:
				attr  0: watermark value: 2048
				attr  1: data_available value: 786432
		2 debug attributes found:
				debug attr  0: pseudorandom_err_check value: CH0 : PN9 : Out of Sync : PN Error
CH1 : PN9 : Out of Sync : PN Error
				debug attr  1: direct_reg_access value: 0x0
	iio:device2: xadc
		9 channels found:
			voltage5: vccoddr (input)
			2 channel-specific attributes found:
				attr  0: scale value: 0.732421875

				attr  1: raw value: 1994
			voltage0: vccint (input)
			2 channel-specific attributes found:
				attr  0: raw value: 1349
				attr  1: scale value: 0.732421875

			voltage4: vccpaux (input)
			2 channel-specific attributes found:
				attr  0: scale value: 0.732421875

				attr  1: raw value: 2447
			temp0:  (input)
			3 channel-specific attributes found:
				attr  0: scale value: 123.040771484

				attr  1: offset value: -2219
				attr  2: raw value: 2636
			voltage7: vrefn (input)
			2 channel-specific attributes found:
				attr  0: scale value: 0.732421875

				attr  1: raw value: 0
			voltage1: vccaux (input)
			2 channel-specific attributes found:
				attr  0: scale value: 0.732421875

				attr  1: raw value: 2449
			voltage2: vccbram (input)
			2 channel-specific attributes found:
				attr  0: scale value: 0.732421875

				attr  1: raw value: 1348
			voltage3: vccpint (input)
			2 channel-specific attributes found:
				attr  0: scale value: 0.732421875

				attr  1: raw value: 1347
			voltage6: vrefp (input)
			2 channel-specific attributes found:
				attr  0: raw value: 1703
				attr  1: scale value: 0.732421875

		1 device-specific attributes found:
				attr  0: sampling_frequency value: 961538
	iio:device0: ad7291
		9 channels found:
			voltage6:  (input)
			2 channel-specific attributes found:
				attr  0: raw value: 2
				attr  1: scale value: 0.610351562

			temp0:  (input)
			3 channel-specific attributes found:
				attr  0: scale value: 250
				attr  1: raw value: 115
				attr  2: mean_raw value: 114
			voltage3:  (input)
			2 channel-specific attributes found:
				attr  0: raw value: 1313
				attr  1: scale value: 0.610351562

			voltage7:  (input)
			2 channel-specific attributes found:
				attr  0: raw value: 2
				attr  1: scale value: 0.610351562

			voltage0:  (input)
			2 channel-specific attributes found:
				attr  0: raw value: 3359
				attr  1: scale value: 0.610351562

			voltage4:  (input)
			2 channel-specific attributes found:
				attr  0: raw value: 2506
				attr  1: scale value: 0.610351562

			voltage1:  (input)
			2 channel-specific attributes found:
				attr  0: raw value: 3355
				attr  1: scale value: 0.610351562

			voltage5:  (input)
			2 channel-specific attributes found:
				attr  0: raw value: 1301
				attr  1: scale value: 0.610351562

			voltage2:  (input)
			2 channel-specific attributes found:
				attr  0: raw value: 3363
				attr  1: scale value: 0.610351562

